{
    "data": [
        {
            "id": 159164,
            "common_name": "Red monkswort",
            "slug": "nonea-vesicaria",
            "scientific_name": "Nonea vesicaria",
            "year": 1831,
            "bibliography": "Fl. Germ. Excurs. 1: 338 (1831)",
            "author": "(L.) Rchb.",
            "status": "accepted",
            "rank": "species",
            "family_common_name": "Borage family",
            "genus_id": 4886,
            "image_url": "https://bs.plantnet.org/image/o/564493255040a0ed6e41a2a23d5c7855fa5dbc32",
            "synonyms": [
                "Echioides nigricans",
                "Anchusa nigricans",
                "Nonea nigricans",
                "Elizaldia violacea",
                "Echioides violacea",
                "Nonea violacea",
                "Lycopsis nigricans",
                "Nonea decumbens",
                "Lithospermum vesicarium"
            ],
            "genus": "Nonea",
            "family": "Boraginaceae",
            "links": {
                "self": "/api/v1/species/nonea-vesicaria",
                "plant": "/api/v1/plants/nonea-vesicaria",
                "genus": "/api/v1/genus/nonea"
            }
        },
        {
            "id": 1128791,
            "common_name": "Red nightshade",
            "slug": "solanum-forskaolii",
            "scientific_name": "Solanum forskaolii",
            "year": 1813,
            "bibliography": "Hist. Nat. Solanum: 237 (1813)",
            "author": "Dunal",
            "status": "accepted",
            "rank": "species",
            "family_common_name": "Potato family",
            "genus_id": 4329,
            "image_url": "https://bs.plantnet.org/image/o/51032ef484dc86465836149366ed891e1e776e02",
            "synonyms": [
                "Solanum heudelotii",
                "Solanum macilentum",
                "Solanum scindicum",
                "Solanum darfurense",
                "Solanum hadaq",
                "Solanum albicaule"
            ],
            "genus": "Solanum",
            "family": "Solanaceae",
            "links": {
                "self": "/api/v1/species/solanum-forskaolii",
                "plant": "/api/v1/plants/solanum-forskaolii",
                "genus": "/api/v1/genus/solanum"
            }
        },
        {
            "id": 648887,
            "common_name": "Red hoarypea",
            "slug": "tephrosia-uniflora",
            "scientific_name": "Tephrosia uniflora",
            "year": 1807,
            "bibliography": "Syn. Pl. 2: 329 (1807)",
            "author": "Pers.",
            "status": "accepted",
            "rank": "species",
            "family_common_name": "Pea family",
            "genus_id": 2078,
            "image_url": "https://bs.plantnet.org/image/o/60e19e16094e0b99e3577574dfc0d96e6cc3ef07",
            "synonyms": [
                "Galega uniflora",
                "Tephrosia hirsuta",
                "Tephrosia ilorinensis",
                "Tephrosia transjubensis",
                "Cracca anthylloides",
                "Tephrosia quartiniana",
                "Tephrosia mossambicensis",
                "Cracca richardiana",
                "Tephrosia anthylloides",
                "Tephrosia cordofana",
                "Tephrosia vicioides",
                "Cracca vicioides"
            ],
            "genus": "Tephrosia",
            "family": "Fabaceae",
            "links": {
                "self": "/api/v1/species/tephrosia-uniflora",
                "plant": "/api/v1/plants/tephrosia-uniflora",
                "genus": "/api/v1/genus/tephrosia"
            }
        },
        {
            "id": 127612,
            "common_name": "Red larkspur",
            "slug": "delphinium-nudicaule",
            "scientific_name": "Delphinium nudicaule",
            "year": 1838,
            "bibliography": "Fl. N. Amer. 1:33.  1838",
            "author": "Torr. \u0026 A.Gray",
            "status": "accepted",
            "rank": "species",
            "family_common_name": "Buttercup family",
            "genus_id": 1999,
            "image_url": "https://d2seqvvyy3b8p2.cloudfront.net/63259bb170278a6d2dc5fc69628ebb47.jpg",
            "synonyms": [
                "Delphinastrum nudicaule",
                "Delphinium sarcophyllum",
                "Delphinium nudicaule f. elatius",
                "Delphinium nudicaule var. elatium",
                "Delphinium decorum var. nudicaule",
                "Consolida armeniaca",
                "Delphinium armeniacum"
            ],
            "genus": "Delphinium",
            "family": "Ranunculaceae",
            "links": {
                "self": "/api/v1/species/delphinium-nudicaule",
                "plant": "/api/v1/plants/delphinium-nudicaule",
                "genus": "/api/v1/genus/delphinium"
            }
        },
        {
            "id": 138229,
            "common_name": "Red dome blanketflower",
            "slug": "gaillardia-pinnatifida",
            "scientific_name": "Gaillardia pinnatifida",
            "year": 1828,
            "bibliography": "Ann. Lyceum Nat. Hist. New York 2: 214 (1828)",
            "author": "Torr.",
            "status": "accepted",
            "rank": "species",
            "family_common_name": "Aster family",
            "genus_id": 3094,
            "image_url": "https://d2seqvvyy3b8p2.cloudfront.net/86901758de03c62287f0247ddd40e544.jpg",
            "synonyms": [
                "Gaillardia flava",
                "Gaillardia gracilis",
                "Gaillardia pinnatifida var. linearis",
                "Gaillardia mearnsii",
                "Gaillardia linearis"
            ],
            "genus": "Gaillardia",
            "family": "Asteraceae",
            "links": {
                "self": "/api/v1/species/gaillardia-pinnatifida",
                "plant": "/api/v1/plants/gaillardia-pinnatifida",
                "genus": "/api/v1/genus/gaillardia"
            }
        },
        {
            "id": 173194,
            "common_name": "Southern red oak",
            "slug": "quercus-falcata",
            "scientific_name": "Quercus falcata",
            "year": 1801,
            "bibliography": "Hist. Chênes Amér.: 28 (1801)",
            "author": "Michx.",
            "status": "accepted",
            "rank": "species",
            "family_common_name": "Beech family",
            "genus_id": 5778,
            "image_url": "https://bs.plantnet.org/image/o/9d557bff6376e7fff48be94b596a74f6860c5e1d",
            "synonyms": [
                "Quercus triloba",
                "Quercus nobilis",
                "Quercus falcata var. ludoviciana",
                "Quercus nigra var. digitata",
                "Quercus falcata f. angustior",
                "Quercus cuneata var. falcata",
                "Quercus digitata",
                "Quercus rubra f. triloba",
                "Quercus nigra var. falcata",
                "Quercus nigra var. triloba",
                "Quercus falcata f. triloba",
                "Quercus falcata var. typica",
                "Quercus rubra f. falcata",
                "Quercus rubra var. triloba",
                "Quercus falcata var. triloba"
            ],
            "genus": "Quercus",
            "family": "Fagaceae",
            "links": {
                "self": "/api/v1/species/quercus-falcata",
                "plant": "/api/v1/plants/quercus-falcata",
                "genus": "/api/v1/genus/quercus"
            }
        },
        {
            "id": 157688,
            "common_name": "Red mulberry",
            "slug": "morus-rubra",
            "scientific_name": "Morus rubra",
            "year": 1753,
            "bibliography": "Sp. Pl.: 986 (1753)",
            "author": "L.",
            "status": "accepted",
            "rank": "species",
            "family_common_name": "Mulberry family",
            "genus_id": 1159,
            "image_url": "https://bs.plantnet.org/image/o/a6541ec54257a17cffbb759b1d1b9556ad7d1863",
            "synonyms": [
                "Morus rubra var. tomentosa",
                "Morus argutidens",
                "Morus scabra",
                "Morus reticulata",
                "Morus rubra f. incurva",
                "Morus canadensis",
                "Morus riparia",
                "Morus tomentosa",
                "Morus parvifolia",
                "Morus rubra f. laevis",
                "Morus rubra var. incisa",
                "Morus caroliniana",
                "Morus rubra var. rubra"
            ],
            "genus": "Morus",
            "family": "Moraceae",
            "links": {
                "self": "/api/v1/species/morus-rubra",
                "plant": "/api/v1/plants/morus-rubra",
                "genus": "/api/v1/genus/morus"
            }
        },
        {
            "id": 129504,
            "common_name": "Red bush monkeyflower",
            "slug": "diplacus-puniceus",
            "scientific_name": "Diplacus puniceus",
            "year": 1838,
            "bibliography": "Ann. Nat. Hist. 1: 137 (1838)",
            "author": "Nutt.",
            "status": "accepted",
            "rank": "species",
            "family_common_name": null,
            "genus_id": 2482,
            "image_url": "https://d2seqvvyy3b8p2.cloudfront.net/35917325843617fffd179f92bee36511.jpg",
            "synonyms": [
                "Mimulus puniceus",
                "Diplacus glutinosus var. puniceus",
                "Mimulus aurantiacus var. puniceus",
                "Mimulus glutinosus var. puniceus"
            ],
            "genus": "Diplacus",
            "family": "Phrymaceae",
            "links": {
                "self": "/api/v1/species/diplacus-puniceus",
                "plant": "/api/v1/plants/diplacus-puniceus",
                "genus": "/api/v1/genus/diplacus"
            }
        },
        {
            "id": 663149,
            "common_name": "Red saraca",
            "slug": "saraca-declinata",
            "scientific_name": "Saraca declinata",
            "year": 1855,
            "bibliography": "Fl. Ned. Ind. 1(1): 84 (1855)",
            "author": "(Jack) Miq.",
            "status": "accepted",
            "rank": "species",
            "family_common_name": "Pea family",
            "genus_id": 13242,
            "image_url": "https://bs.plantnet.org/image/o/68a16e104583ff6f0e27d1cc2c9c2fad9cbc8939",
            "synonyms": [
                "Saraca crassifolia",
                "Saraca zollingeriana",
                "Saraca palembanica",
                "Saraca obtusifolia",
                "Saraca macroptera",
                "Saraca longistyla",
                "Saraca thorelii",
                "Saraca lanceolata",
                "Jonesia palembanica",
                "Saraca cauliflora",
                "Saraca elmeri",
                "Jonesia declinata",
                "Saraca elegans",
                "Jonesia javanica",
                "Jonesia macroptera",
                "Saraca biglandulosa"
            ],
            "genus": "Saraca",
            "family": "Fabaceae",
            "links": {
                "self": "/api/v1/species/saraca-declinata",
                "plant": "/api/v1/plants/saraca-declinata",
                "genus": "/api/v1/genus/saraca"
            }
        },
        {
            "id": 107662,
            "common_name": "Red chokeberry",
            "slug": "aronia-arbutifolia",
            "scientific_name": "Aronia arbutifolia",
            "year": 1806,
            "bibliography": "Syn. Pl. 2: 39 (1806)",
            "author": "(L.) Pers.",
            "status": "accepted",
            "rank": "species",
            "family_common_name": "Rose family",
            "genus_id": 672,
            "image_url": "https://bs.plantnet.org/image/o/6f494e094e3567dfe72aeca9391e1fdd2f1161c8",
            "synonyms": [
                "Sorbus arbutifolia",
                "Photinia pyrifolia",
                "Aronia pumila",
                "Mespilus arbutifolia",
                "Pyrus arbutifolia",
                "Aronia pubens",
                "Aronia glabrescens",
                "Crataegus pyrifolia",
                "Pyrus arbutifolia var. glabra",
                "Aronia densiflora",
                "Pyrus depressa",
                "Pyrus densiflora",
                "Sorbus depressa",
                "Sorbus densiflora",
                "Adenorachis arbutifolia",
                "Sorbus arbutifolia var. depressa",
                "Hahnia arbutifolia",
                "Aronia pyrifolia",
                "Aronia arbutifolia var. brilliantissima",
                "Aronia arbutifolia var. glabra"
            ],
            "genus": "Aronia",
            "family": "Rosaceae",
            "links": {
                "self": "/api/v1/species/aronia-arbutifolia",
                "plant": "/api/v1/plants/aronia-arbutifolia",
                "genus": "/api/v1/genus/aronia"
            }
        },
        {
            "id": 180460,
            "common_name": "Red stonecrop",
            "slug": "sedum-moranense",
            "scientific_name": "Sedum moranense",
            "year": 1823,
            "bibliography": "F.W.H.von Humboldt, A.J.A.Bonpland \u0026 C.S.Kunth, Nov. Gen. Sp. 6: 44 (1823)",
            "author": "Kunth",
            "status": "accepted",
            "rank": "species",
            "family_common_name": "Stonecrop family",
            "genus_id": 2395,
            "image_url": "https://bs.plantnet.org/image/o/93dc0e434ff267eb23169c546c538993844c948d",
            "synonyms": [
                "Sedum arboreum",
                "Sedum submontanum"
            ],
            "genus": "Sedum",
            "family": "Crassulaceae",
            "links": {
                "self": "/api/v1/species/sedum-moranense",
                "plant": "/api/v1/plants/sedum-moranense",
                "genus": "/api/v1/genus/sedum"
            }
        },
        {
            "id": 102342,
            "common_name": "Red beadtree",
            "slug": "adenanthera-pavonina",
            "scientific_name": "Adenanthera pavonina",
            "year": 1753,
            "bibliography": "Sp. Pl.: 384 (1753)",
            "author": "L.",
            "status": "accepted",
            "rank": "species",
            "family_common_name": "Pea family",
            "genus_id": 106,
            "image_url": "https://bs.plantnet.org/image/o/1bd57355deb904d7ee89e3cfaa98c804b2840c3f",
            "synonyms": [
                "Entada arborea",
                "Adenanthera polita",
                "Adenanthera gersenii"
            ],
            "genus": "Adenanthera",
            "family": "Fabaceae",
            "links": {
                "self": "/api/v1/species/adenanthera-pavonina",
                "plant": "/api/v1/plants/adenanthera-pavonina",
                "genus": "/api/v1/genus/adenanthera"
            }
        },
        {
            "id": 162960,
            "common_name": "Red passionflower",
            "slug": "passiflora-manicata",
            "scientific_name": "Passiflora manicata",
            "year": 1806,
            "bibliography": "Syn. Pl. 2: 221 (1806)",
            "author": "(Juss.) Pers.",
            "status": "accepted",
            "rank": "species",
            "family_common_name": "Passion-flower family",
            "genus_id": 5163,
            "image_url": "https://bs.plantnet.org/image/o/d5a63f275ba72699d69ef7ed2f2fd8e33c317d91",
            "synonyms": [
                "Tacsonia manicata",
                "Tacsonia ignea",
                "Passiflora rhodantha",
                "Passiflora meridensis"
            ],
            "genus": "Passiflora",
            "family": "Passifloraceae",
            "links": {
                "self": "/api/v1/species/passiflora-manicata",
                "plant": "/api/v1/plants/passiflora-manicata",
                "genus": "/api/v1/genus/passiflora"
            }
        },
        {
            "id": 177396,
            "common_name": "Red swampfire",
            "slug": "salicornia-rubra",
            "scientific_name": "Salicornia rubra",
            "year": 1899,
            "bibliography": "Bull. Torrey Bot. Club 26: 122 (1899)",
            "author": "A.Nelson",
            "status": "accepted",
            "rank": "species",
            "family_common_name": "Amaranth family",
            "genus_id": 697,
            "image_url": "https://bs.plantnet.org/image/o/467f173af82dfabb3c4d217be301abe8d4723c80",
            "synonyms": [
                "Salicornia europaea subsp. rubra",
                "Salicornia borealis",
                "Salicornia rubra var. prona",
                "Salicornia europaea var. prona"
            ],
            "genus": "Salicornia",
            "family": "Amaranthaceae",
            "links": {
                "self": "/api/v1/species/salicornia-rubra",
                "plant": "/api/v1/plants/salicornia-rubra",
                "genus": "/api/v1/genus/salicornia"
            }
        },
        {
            "id": 118442,
            "common_name": "Red triangles",
            "slug": "centrostegia-thurberi",
            "scientific_name": "Centrostegia thurberi",
            "year": 1856,
            "bibliography": "A.P.de Candolle, Prodr. 14: 27 (1856)",
            "author": "A.Gray ex Benth.",
            "status": "accepted",
            "rank": "species",
            "family_common_name": "Buckwheat family",
            "genus_id": 647,
            "image_url": "https://d2seqvvyy3b8p2.cloudfront.net/8a8adb74a8cf2e772d5694f6e0d3b2f0.jpg",
            "synonyms": [
                "Chorizanthe thurberi var. macrotheca",
                "Centrostegia thurberi var. macrotheca",
                "Chorizanthe thurberi",
                "Chorizanthe thurberi var. cryptantha",
                "Centrostegia cryptantha"
            ],
            "genus": "Centrostegia",
            "family": "Polygonaceae",
            "links": {
                "self": "/api/v1/species/centrostegia-thurberi",
                "plant": "/api/v1/plants/centrostegia-thurberi",
                "genus": "/api/v1/genus/centrostegia"
            }
        },
        {
            "id": 155325,
            "common_name": "Red melastome",
            "slug": "melastoma-sanguineum",
            "scientific_name": "Melastoma sanguineum",
            "year": 1821,
            "bibliography": "Bot. Mag. 48: t. 2241 (1821)",
            "author": "Sims",
            "status": "accepted",
            "rank": "species",
            "family_common_name": "Melastome family",
            "genus_id": 1872,
            "image_url": "https://d2seqvvyy3b8p2.cloudfront.net/f40932163303f32e8540669e0a6b452a.jpg",
            "synonyms": [
                "Melastoma decemfidum",
                "Melastoma balinense",
                "Melastoma teysmannii",
                "Melastoma bancanum",
                "Melastoma muricatum",
                "Melastoma gaudichaudianum",
                "Melastoma pulcherrimum",
                "Melastoma malabatricum"
            ],
            "genus": "Melastoma",
            "family": "Melastomataceae",
            "links": {
                "self": "/api/v1/species/melastoma-sanguineum",
                "plant": "/api/v1/plants/melastoma-sanguineum",
                "genus": "/api/v1/genus/melastoma"
            }
        },
        {
            "id": 137699,
            "common_name": "Red buckthorn",
            "slug": "frangula-rubra",
            "scientific_name": "Frangula rubra",
            "year": 1949,
            "bibliography": "Trudy Bot. Inst. Akad. Nauk S.S.S.R., Ser. 1, Fl. Sist. Vyssh. Rast. 8: 271 (1949)",
            "author": "(Greene) Grubov",
            "status": "accepted",
            "rank": "species",
            "family_common_name": "Buckthorn family",
            "genus_id": 3055,
            "image_url": null,
            "synonyms": [
                "Rhamnus rubra",
                "Rhamnus californica var. viridula",
                "Frangula viridula"
            ],
            "genus": "Frangula",
            "family": "Rhamnaceae",
            "links": {
                "self": "/api/v1/species/frangula-rubra",
                "plant": "/api/v1/plants/frangula-rubra",
                "genus": "/api/v1/genus/frangula"
            }
        },
        {
            "id": 922303,
            "common_name": "Red passionflower",
            "slug": "passiflora-cinnabarina",
            "scientific_name": "Passiflora cinnabarina",
            "year": 1855,
            "bibliography": "Gard. Chron. 1855:724.  1855",
            "author": "Lindl.",
            "status": "accepted",
            "rank": "species",
            "family_common_name": "Passion-flower family",
            "genus_id": 5163,
            "image_url": "https://bs.plantnet.org/image/o/0161527645ee2bffee275740ae1464c64dada96f",
            "synonyms": [
                "Disemma muelleriana",
                "Passiflora muelleriana"
            ],
            "genus": "Passiflora",
            "family": "Passifloraceae",
            "links": {
                "self": "/api/v1/species/passiflora-cinnabarina",
                "plant": "/api/v1/plants/passiflora-cinnabarina",
                "genus": "/api/v1/genus/passiflora"
            }
        },
        {
            "id": 1112628,
            "common_name": "Transvaal red milkwood",
            "slug": "mimusops-zeyheri",
            "scientific_name": "Mimusops zeyheri",
            "year": 1850,
            "bibliography": "Linnaea 23:74.  1850",
            "author": "Sond.",
            "status": "accepted",
            "rank": "species",
            "family_common_name": "Sapodilla family",
            "genus_id": 4440,
            "image_url": "https://bs.plantnet.org/image/o/5df484b9f21e1eac9db7cb906e1b7e49312214ea",
            "synonyms": [
                "Mimusops blantyreana",
                "Mimusops decorifolia",
                "Mimusops monroi",
                "Mimusops affinis"
            ],
            "genus": "Mimusops",
            "family": "Sapotaceae",
            "links": {
                "self": "/api/v1/species/mimusops-zeyheri",
                "plant": "/api/v1/plants/mimusops-zeyheri",
                "genus": "/api/v1/genus/mimusops"
            }
        },
        {
            "id": 179034,
            "common_name": "Red-stem pseudosaxifrage",
            "slug": "micranthes-lyallii",
            "scientific_name": "Micranthes lyallii",
            "year": 1905,
            "bibliography": "N. Amer. fl. 22:143.  1905",
            "author": "Small",
            "status": "accepted",
            "rank": "species",
            "family_common_name": "Saxifrage family",
            "genus_id": 6017,
            "image_url": "https://bs.plantnet.org/image/o/1fd12f1cbeadf733fd85c127ce607ea75a0c2d48",
            "synonyms": [
                "Saxifraga lyallii var. hultenii",
                "Saxifraga lyallii",
                "Micranthes lyallii subsp. hultenii",
                "Saxifraga lyallii subsp. lyallii",
                "Saxifraga lyallii subsp. hultenii",
                "Saxifraga lyallii var. laxa"
            ],
            "genus": "Micranthes",
            "family": "Saxifragaceae",
            "links": {
                "self": "/api/v1/species/micranthes-lyallii",
                "plant": "/api/v1/plants/micranthes-lyallii",
                "genus": "/api/v1/genus/micranthes"
            }
        }
    ],
    "links": {
        "self": "/api/v1/plants/search?page=3\u0026q=red",
        "first": "/api/v1/plants/search?page=1\u0026q=red",
        "prev": "/api/v1/plants/search?page=2\u0026q=red",
        "next": "/api/v1/plants/search?page=4\u0026q=red",
        "last": "/api/v1/plants/search?page=41\u0026q=red"
    },
    "meta": {
        "total": 816
    }
}